Assignment 1/Assignment1/Assignment4/WaveForm.vcd
$date
     Sep 13, 2021       20:15:20
$end

$version
 SystemC 2.3.3-Accellera --- Sep  3 2021 09:18:50
$end

$timescale
     1 ns
$end

$scope module SystemC $end
$var wire    1  aaaaa  CLK       $end
$var wire    1  aaaab  Slave_Ready       $end
$var wire    1  aaaac  Data_Valid       $end
$var wire   16  aaaad  data [15:0]  $end
$var wire    2  aaaae  error [1:0]  $end
$var wire    4  aaaaf  channel [3:0]  $end
$upscope $end
$enddefinitions  $end

$comment
All initial values are dumped below at time 0 sec = 0 timescale units.
$end

$dumpvars
1aaaaa
1aaaab
0aaaac
b0 aaaad
b0 aaaae
b0 aaaaf
$end

#5
1aaaac
b10 aaaad

#10
0aaaaa

#20
1aaaaa
0aaaab
b100 aaaad

#30
0aaaaa

#40
1aaaaa
0aaaac

#50
0aaaaa

#60
1aaaaa

#70
0aaaaa

#80
1aaaaa
1aaaab

#90
0aaaaa

#100
1aaaaa
1aaaac

#110
0aaaaa

#120
1aaaaa
0aaaab
b1000 aaaad

#130
0aaaaa

#140
1aaaaa
0aaaac

#150
0aaaaa

#160
1aaaaa

#170
0aaaaa

#180
1aaaaa
1aaaab

#190
0aaaaa

#200
1aaaaa
1aaaac

#210
0aaaaa

#220
1aaaaa
0aaaab
b10000 aaaad

#230
0aaaaa

#240
1aaaaa
0aaaac

#250
0aaaaa

#260
1aaaaa

#270
0aaaaa

#280
1aaaaa
1aaaab

#290
0aaaaa

#300
1aaaaa
1aaaac

#310
0aaaaa

#320
1aaaaa
0aaaab
b100000 aaaad

#330
0aaaaa

#340
1aaaaa
0aaaac

#350
0aaaaa

#360
1aaaaa

#370
0aaaaa

#380
1aaaaa
1aaaab

#390
0aaaaa

#400
1aaaaa
1aaaac

#410
0aaaaa

#420
1aaaaa
0aaaab
b1000000 aaaad

#430
0aaaaa

#440
1aaaaa
0aaaac

#450
0aaaaa

#460
1aaaaa

#470
0aaaaa

#480
1aaaaa
1aaaab

#490
0aaaaa

#500
1aaaaa
1aaaac

#510
0aaaaa

#520
1aaaaa
0aaaab
b10000000 aaaad

#530
0aaaaa

#540
1aaaaa
0aaaac

#550
0aaaaa

#560
1aaaaa

#570
0aaaaa

#580
1aaaaa
1aaaab

#590
0aaaaa

#600
1aaaaa
1aaaac

#610
0aaaaa

#620
1aaaaa
0aaaab
b11111111 aaaad

#630
0aaaaa

#640
1aaaaa
0aaaac

#650
0aaaaa

#660
1aaaaa

#670
0aaaaa

#680
1aaaaa
1aaaab

#690
0aaaaa

#700
1aaaaa
1aaaac
b10 aaaad

#710
0aaaaa

#720
1aaaaa
0aaaab
b100 aaaad

#730
0aaaaa

#740
1aaaaa
0aaaac

#750
0aaaaa

#760
1aaaaa

#770
0aaaaa

#780
1aaaaa
1aaaab

#790
0aaaaa

#800
1aaaaa
1aaaac

#810
0aaaaa

#820
1aaaaa
0aaaab
b1000 aaaad

#830
0aaaaa

#840
1aaaaa
0aaaac

#850
0aaaaa

#860
1aaaaa

#870
0aaaaa

#880
1aaaaa
1aaaab

#890
0aaaaa

#900
1aaaaa
1aaaac

#910
0aaaaa

#920
1aaaaa
0aaaab
b10000 aaaad

#930
0aaaaa

#940
1aaaaa
0aaaac

#950
0aaaaa

#960
1aaaaa

#970
0aaaaa

#980
1aaaaa
1aaaab

