Assignment 1/Assignment1/Assignment4/WaveForm.vcd
$date
     Sep 14, 2021       09:36:40
$end

$version
 SystemC 2.3.3-Accellera --- Sep  3 2021 09:18:50
$end

$timescale
     1 ns
$end

$scope module SystemC $end
$var wire    1  aaaaa  CLK       $end
$var wire    1  aaaab  Slave_Ready       $end
$var wire    1  aaaac  Data_Valid       $end
$var wire   16  aaaad  data [15:0]  $end
$var wire    2  aaaae  error [1:0]  $end
$var wire    4  aaaaf  channel [3:0]  $end
$upscope $end
$enddefinitions  $end

$comment
All initial values are dumped below at time 0 sec = 0 timescale units.
$end

$dumpvars
1aaaaa
1aaaab
0aaaac
b0 aaaad
b0 aaaae
b0 aaaaf
$end

#5
1aaaac
b10 aaaad

#10
0aaaaa

#20
1aaaaa
b100 aaaad

#30
0aaaaa

#40
1aaaaa
0aaaab
0aaaac

#50
0aaaaa

#60
1aaaaa
1aaaab

#70
0aaaaa

#80
1aaaaa
1aaaac
b1000 aaaad

#90
0aaaaa

#100
1aaaaa
b10000 aaaad

#110
0aaaaa

#120
1aaaaa
0aaaab
0aaaac

#130
0aaaaa

#140
1aaaaa
1aaaab

#150
0aaaaa

#160
1aaaaa
1aaaac
b100000 aaaad

#170
0aaaaa

#180
1aaaaa
b1000000 aaaad

#190
0aaaaa

#200
1aaaaa
0aaaab
0aaaac

#210
0aaaaa

#220
1aaaaa
1aaaab

#230
0aaaaa

#240
1aaaaa
1aaaac
b10000000 aaaad

#250
0aaaaa

#260
1aaaaa
b11111111 aaaad

#270
0aaaaa

#280
1aaaaa
0aaaab
0aaaac

