Assignment 1/Assignment1/Assignment5/WaveForm.vcd
$date
     Sep 14, 2021       11:01:26
$end

$version
 SystemC 2.3.3-Accellera --- Aug 30 2021 09:48:28
$end

$timescale
     1 ns
$end

$scope module SystemC $end
$var wire    1  aaaaa  CLK       $end
$var wire    1  aaaab  Slave_Ready       $end
$var wire    1  aaaac  Data_Valid       $end
$var wire   16  aaaad  data [15:0]  $end
$var wire    2  aaaae  error [1:0]  $end
$var wire    4  aaaaf  channel [3:0]  $end
$upscope $end
$enddefinitions  $end

$comment
All initial values are dumped below at time 0 sec = 0 timescale units.
$end

$dumpvars
1aaaaa
0aaaab
1aaaac
b10 aaaad
b0 aaaae
b0 aaaaf
$end

#10
0aaaaa

#20
1aaaaa
1aaaab
0aaaac

#30
0aaaaa

#40
1aaaaa
0aaaab

#50
0aaaaa

#60
1aaaaa
1aaaab
1aaaac
b100 aaaad

#70
0aaaaa

#80
1aaaaa
0aaaac

#90
0aaaaa

#100
1aaaaa
0aaaab
1aaaac
b1000 aaaad

#110
0aaaaa

#120
1aaaaa
1aaaab
0aaaac

#130
0aaaaa

#140
1aaaaa
0aaaab

#150
0aaaaa

#160
1aaaaa
1aaaab
1aaaac
b10000 aaaad

#170
0aaaaa

#180
1aaaaa
0aaaac

#190
0aaaaa

#200
1aaaaa
0aaaab
1aaaac
b100000 aaaad

#210
0aaaaa

#220
1aaaaa
1aaaab
0aaaac

#230
0aaaaa

#240
1aaaaa
0aaaab

#250
0aaaaa

#260
1aaaaa
1aaaab
1aaaac
b1000000 aaaad

#270
0aaaaa

#280
1aaaaa
0aaaac

#290
0aaaaa

#300
1aaaaa
0aaaab
1aaaac
b10000000 aaaad

#310
0aaaaa

#320
1aaaaa
1aaaab
0aaaac

#330
0aaaaa

#340
1aaaaa
0aaaab

#350
0aaaaa

#360
1aaaaa
1aaaab
1aaaac
b11111111 aaaad

#370
0aaaaa

#380
1aaaaa
0aaaac

#390
0aaaaa

#400
1aaaaa
0aaaab
1aaaac
b10 aaaad

#410
0aaaaa

#420
1aaaaa
1aaaab
0aaaac

#430
0aaaaa

#440
1aaaaa
0aaaab

#450
0aaaaa

#460
1aaaaa
1aaaab
1aaaac
b100 aaaad

#470
0aaaaa

#480
1aaaaa
0aaaac

